Chov/pld/simulation/qsim/choin.msim.vcd
$comment
	File created using the following command:
		vcd file choin.msim.vcd -direction
$end
$date
	Wed Feb 05 20:24:08 2014
$end
$version
	ModelSim Version 10.1d
$end
$timescale
	1ps
$end
$scope module choin_vlg_vec_tst $end
$var reg 1 ! CLK $end
$var reg 8 " DUTY [7:0] $end
$var reg 1 # SET $end
$var wire 1 $ PWM_OUT $end
$var wire 1 % sampler $end
$scope module i1 $end
$var wire 1 & gnd $end
$var wire 1 ' vcc $end
$var wire 1 ( unknown $end
$var tri1 1 ) devclrn $end
$var tri1 1 * devpor $end
$var tri1 1 + devoe $end
$var wire 1 , inst|lpm_counter_component|auto_generated|counter_comb_bita0~combout $end
$var wire 1 - inst|lpm_counter_component|auto_generated|counter_comb_bita2~combout $end
$var wire 1 . inst|lpm_counter_component|auto_generated|counter_comb_bita4~combout $end
$var wire 1 / SET~combout $end
$var wire 1 0 CLK~combout $end
$var wire 1 1 SET~clkctrl_outclk $end
$var wire 1 2 CLK~clkctrl_outclk $end
$var wire 1 3 inst|lpm_counter_component|auto_generated|counter_comb_bita0~COUT $end
$var wire 1 4 inst|lpm_counter_component|auto_generated|counter_comb_bita1~combout $end
$var wire 1 5 inst|lpm_counter_component|auto_generated|counter_comb_bita1~COUT $end
$var wire 1 6 inst|lpm_counter_component|auto_generated|counter_comb_bita2~COUT $end
$var wire 1 7 inst|lpm_counter_component|auto_generated|counter_comb_bita3~combout $end
$var wire 1 8 inst|lpm_counter_component|auto_generated|counter_comb_bita3~COUT $end
$var wire 1 9 inst|lpm_counter_component|auto_generated|counter_comb_bita4~COUT $end
$var wire 1 : inst|lpm_counter_component|auto_generated|counter_comb_bita5~combout $end
$var wire 1 ; inst|lpm_counter_component|auto_generated|counter_comb_bita5~COUT $end
$var wire 1 < inst|lpm_counter_component|auto_generated|counter_comb_bita6~combout $end
$var wire 1 = inst|lpm_counter_component|auto_generated|counter_comb_bita6~COUT $end
$var wire 1 > inst|lpm_counter_component|auto_generated|counter_comb_bita7~combout $end
$var wire 1 ? inst|op_1~1_cout $end
$var wire 1 @ inst|op_1~3_cout $end
$var wire 1 A inst|op_1~5_cout $end
$var wire 1 B inst|op_1~7_cout $end
$var wire 1 C inst|op_1~9_cout $end
$var wire 1 D inst|op_1~11_cout $end
$var wire 1 E inst|op_1~13_cout $end
$var wire 1 F inst|op_1~14_combout $end
$var wire 1 G DUTY~combout [7] $end
$var wire 1 H DUTY~combout [6] $end
$var wire 1 I DUTY~combout [5] $end
$var wire 1 J DUTY~combout [4] $end
$var wire 1 K DUTY~combout [3] $end
$var wire 1 L DUTY~combout [2] $end
$var wire 1 M DUTY~combout [1] $end
$var wire 1 N DUTY~combout [0] $end
$var wire 1 O inst|lpm_counter_component|auto_generated|safe_q [7] $end
$var wire 1 P inst|lpm_counter_component|auto_generated|safe_q [6] $end
$var wire 1 Q inst|lpm_counter_component|auto_generated|safe_q [5] $end
$var wire 1 R inst|lpm_counter_component|auto_generated|safe_q [4] $end
$var wire 1 S inst|lpm_counter_component|auto_generated|safe_q [3] $end
$var wire 1 T inst|lpm_counter_component|auto_generated|safe_q [2] $end
$var wire 1 U inst|lpm_counter_component|auto_generated|safe_q [1] $end
$var wire 1 V inst|lpm_counter_component|auto_generated|safe_q [0] $end
$var wire 1 W inst|reg [7] $end
$var wire 1 X inst|reg [6] $end
$var wire 1 Y inst|reg [5] $end
$var wire 1 Z inst|reg [4] $end
$var wire 1 [ inst|reg [3] $end
$var wire 1 \ inst|reg [2] $end
$var wire 1 ] inst|reg [1] $end
$var wire 1 ^ inst|reg [0] $end
$upscope $end
$upscope $end
$enddefinitions $end
#0
$dumpvars
0!
b0 "
0#
1$
x%
0&
1'
x(
1)
1*
1+
1,
0-
0.
0/
00
01
02
03
04
15
06
07
18
09
0:
1;
0<
0=
0>
0?
1@
0A
1B
0C
1D
0E
0F
0N
0M
0L
0K
0J
0I
0H
0G
0V
0U
0T
0S
0R
0Q
0P
0O
0^
0]
0\
0[
0Z
0Y
0X
0W
$end
#50000
1!
10
12
0%
1V
1?
13
0,
0@
14
1A
0B
1C
0D
1E
1F
0$
#100000
0!
00
02
1%
#150000
1!
10
12
0%
1U
0V
05
04
0?
03
1,
1-
15
14
0-
#200000
0!
00
02
1%
#250000
1!
10
12
0%
1V
1?
13
0,
05
04
1-
#300000
0!
00
02
1%
#350000
1!
10
12
0%
0U
0V
1T
15
14
0?
03
1,
16
0-
06
1-
1@
04
17
07
#400000
0!
00
02
1%
#450000
1!
10
12
0%
1V
1?
13
0,
0@
14
#500000
0!
00
02
1%
#550000
1!
10
12
0%
1U
0V
05
04
0?
03
1,
16
0-
15
14
17
06
1-
07
#600000
0!
00
02
1%
#650000
1!
10
12
0%
1V
1?
13
0,
05
04
16
0-
17
#700000
0!
00
02
1%
#750000
1!
10
12
0%
1S
0U
0V
0T
08
07
15
14
0?
03
1,
06
1-
1.
0-
1@
04
18
17
0A
0.
#800000
0!
00
02
1%
#850000
1!
10
12
0%
1V
1?
13
0,
0@
14
1A
#900000
0!
00
02
1%
#950000
1!
10
12
0%
1U
0V
05
04
0?
03
1,
1-
15
14
0-
#1000000
0!
00
02
1%
#1050000
1!
10
12
0%
1V
1?
13
0,
05
04
1-
#1100000
0!
00
02
1%
#1150000
1!
10
12
0%
0U
0V
1T
15
14
0?
03
1,
16
0-
06
1-
1@
04
08
07
18
17
1.
0.
#1200000
0!
00
02
1%
#1250000
1!
10
12
0%
1V
1?
13
0,
0@
14
#1280000
1#
1/
11
1%
#1300000
0!
00
02
0%
#1350000
1!
10
12
1%
1U
0V
05
04
0?
03
1,
16
0-
15
14
08
07
06
1-
1.
18
17
0.
#1400000
0!
00
02
0%
#1450000
1!
10
12
1%
1V
1?
13
0,
05
04
16
0-
08
07
1.
#1500000
0!
00
02
0%
#1550000
1!
10
12
1%
0S
0U
0V
0T
1R
18
17
15
14
0?
03
1,
06
1-
19
0.
09
1.
0-
1@
04
07
1:
0:
0A
1B
#1600000
0!
00
02
0%
#1650000
1!
10
12
1%
1V
1?
13
0,
0@
14
1A
0B
#1700000
0!
00
02
0%
#1750000
1!
10
12
1%
1U
0V
05
04
0?
03
1,
1-
15
14
0-
#1800000
0!
00
02
0%
#1850000
1!
10
12
1%
1V
1?
13
0,
05
04
1-
#1900000
0!
00
02
0%
#1950000
1!
10
12
1%
0U
0V
1T
15
14
0?
03
1,
16
0-
06
1-
1@
04
17
07
#2000000
0!
00
02
0%
#2050000
1!
10
12
1%
1V
1?
13
0,
0@
14
#2100000
0!
00
02
0%
#2150000
1!
10
12
1%
1U
0V
05
04
0?
03
1,
16
0-
15
14
17
06
1-
07
#2200000
0!
00
02
0%
#2250000
1!
10
12
1%
1V
1?
13
0,
05
04
16
0-
17
#2300000
0!
00
02
0%
#2350000
1!
10
12
1%
1S
0U
0V
0T
08
07
15
14
0?
03
1,
06
1-
19
0.
0-
1@
04
18
17
1:
0A
09
1.
0:
#2400000
0!
00
02
0%
#2450000
1!
10
12
1%
1V
1?
13
0,
0@
14
1A
#2500000
0!
00
02
0%
#2550000
1!
10
12
1%
1U
0V
05
04
0?
03
1,
1-
15
14
0-
#2600000
0!
00
02
0%
#2650000
1!
10
12
1%
1V
1?
13
0,
05
04
1-
#2700000
0!
00
02
0%
#2750000
1!
10
12
1%
0U
0V
1T
15
14
0?
03
1,
16
0-
06
1-
1@
04
08
07
18
17
19
0.
09
1.
1:
0:
#2800000
0!
00
02
0%
#2850000
1!
10
12
1%
1V
1?
13
0,
0@
14
#2900000
0!
00
02
0%
#2950000
1!
10
12
1%
1U
0V
05
04
0?
03
1,
16
0-
15
14
08
07
06
1-
19
0.
18
17
1:
09
1.
0:
#3000000
0!
00
02
0%
#3050000
1!
10
12
1%
1V
1?
13
0,
05
04
16
0-
08
07
19
0.
1:
#3100000
0!
00
02
0%
#3150000
1!
10
12
1%
1Q
0S
0U
0V
0T
0R
0;
0:
18
17
15
14
0?
03
1,
06
1-
09
1.
1<
0.
0-
1@
04
07
1;
1:
0A
0<
1B
0C
#3200000
0!
00
02
0%
#3250000
1!
10
12
1%
1V
1?
13
0,
0@
14
1A
0B
1C
#3300000
0!
00
02
0%
#3350000
1!
10
12
1%
1U
0V
05
04
0?
03
1,
1-
15
14
0-
#3400000
0!
00
02
0%
#3450000
1!
10
12
1%
1V
1?
13
0,
05
04
1-
#3500000
0!
00
02
0%
#3550000
1!
10
12
1%
0U
0V
1T
15
14
0?
03
1,
16
0-
06
1-
1@
04
17
07
#3600000
0!
00
02
0%
#3650000
1!
10
12
1%
1V
1?
13
0,
0@
14
#3700000
0!
00
02
0%
#3750000
1!
10
12
1%
1U
0V
05
04
0?
03
1,
16
0-
15
14
17
06
1-
07
#3800000
0!
00
02
0%
#3840000
0#
0/
01
1%
#3850000
1!
10
12
0%
1V
1?
13
0,
05
04
16
0-
17
#3900000
0!
00
02
1%
#3950000
1!
10
12
0%
1S
0U
0V
0T
08
07
15
14
0?
03
1,
06
1-
1.
0-
1@
04
18
17
0A
0.
#4000000
0!
00
02
1%
#4050000
1!
10
12
0%
1V
1?
13
0,
0@
14
1A
#4100000
0!
00
02
1%
#4150000
1!
10
12
0%
1U
0V
05
04
0?
03
1,
1-
15
14
0-
#4200000
0!
00
02
1%
#4250000
1!
10
12
0%
1V
1?
13
0,
05
04
1-
#4300000
0!
00
02
1%
#4350000
1!
10
12
0%
0U
0V
1T
15
14
0?
03
1,
16
0-
06
1-
1@
04
08
07
18
17
1.
0.
#4400000
0!
00
02
1%
#4450000
1!
10
12
0%
1V
1?
13
0,
0@
14
#4500000
0!
00
02
1%
#4550000
1!
10
12
0%
1U
0V
05
04
0?
03
1,
16
0-
15
14
08
07
06
1-
1.
18
17
0.
#4600000
0!
00
02
1%
#4650000
1!
10
12
0%
1V
1?
13
0,
05
04
16
0-
08
07
1.
#4700000
0!
00
02
1%
#4750000
1!
10
12
0%
0S
0U
0V
0T
1R
18
17
15
14
0?
03
1,
06
1-
19
0.
09
1.
0-
1@
04
07
0;
0:
1;
1:
0A
1<
0<
1B
#4800000
0!
00
02
1%
#4850000
1!
10
12
0%
1V
1?
13
0,
0@
14
1A
0B
#4900000
0!
00
02
1%
#4950000
1!
10
12
0%
1U
0V
05
04
0?
03
1,
1-
15
14
0-
#5000000
0!
00
02
1%
#5050000
1!
10
12
0%
1V
1?
13
0,
05
04
1-
#5100000
0!
00
02
1%
#5150000
1!
10
12
0%
0U
0V
1T
15
14
0?
03
1,
16
0-
06
1-
1@
04
17
07
#5200000
0!
00
02
1%
#5250000
1!
10
12
0%
1V
1?
13
0,
0@
14
#5300000
0!
00
02
1%
#5350000
1!
10
12
0%
1U
0V
05
04
0?
03
1,
16
0-
15
14
17
06
1-
07
#5400000
0!
00
02
1%
#5450000
1!
10
12
0%
1V
1?
13
0,
05
04
16
0-
17
#5500000
0!
00
02
1%
#5550000
1!
10
12
0%
1S
0U
0V
0T
08
07
15
14
0?
03
1,
06
1-
19
0.
0-
1@
04
18
17
0;
0:
0A
09
1.
1<
1;
1:
0<
#5600000
0!
00
02
1%
#5650000
1!
10
12
0%
1V
1?
13
0,
0@
14
1A
#5700000
0!
00
02
1%
#5750000
1!
10
12
0%
1U
0V
05
04
0?
03
1,
1-
15
14
0-
#5760000
b1000 "
b1010 "
1M
1K
1%
#5800000
0!
00
02
0%
#5850000
1!
10
12
1%
1V
1?
13
0,
05
04
1-
#5900000
0!
00
02
0%
#5950000
1!
10
12
1%
0U
0V
1T
15
14
0?
03
1,
16
0-
06
1-
1@
04
08
07
18
17
19
0.
09
1.
0;
0:
1;
1:
1<
0<
#6000000
0!
00
02
0%
#6050000
1!
10
12
1%
1V
1?
13
0,
0@
14
#6100000
0!
00
02
0%
#6150000
1!
10
12
1%
1U
0V
05
04
0?
03
1,
16
0-
15
14
08
07
06
1-
19
0.
18
17
0;
0:
09
1.
1<
1;
1:
0<
#6200000
0!
00
02
0%
#6250000
1!
10
12
1%
1V
1?
13
0,
05
04
16
0-
08
07
19
0.
0;
0:
1<
#6300000
0!
00
02
0%
#6350000
1!
10
12
1%
1P
0Q
0S
0U
0V
0T
0R
1=
0<
1;
1:
18
17
15
14
0?
03
1,
06
1-
09
1.
1>
0=
1<
0.
0-
1@
04
07
0:
0>
0A
1B
0C
1D
#6400000
0!
00
02
0%
#6450000
1!
10
12
1%
1V
1?
13
0,
0@
14
1A
0B
1C
0D
#6500000
0!
00
02
0%
#6550000
1!
10
12
1%
1U
0V
05
04
0?
03
1,
1-
15
14
0-
#6600000
0!
00
02
0%
#6650000
1!
10
12
1%
1V
1?
13
0,
05
04
1-
#6700000
0!
00
02
0%
#6750000
1!
10
12
1%
0U
0V
1T
15
14
0?
03
1,
16
0-
06
1-
1@
04
17
07
#6800000
0!
00
02
0%
#6850000
1!
10
12
1%
1V
1?
13
0,
0@
14
#6900000
0!
00
02
0%
#6950000
1!
10
12
1%
1U
0V
05
04
0?
03
1,
16
0-
15
14
17
06
1-
07
#7000000
0!
00
02
0%
#7050000
1!
10
12
1%
1V
1?
13
0,
05
04
16
0-
17
#7100000
0!
00
02
0%
#7150000
1!
10
12
1%
1S
0U
0V
0T
08
07
15
14
0?
03
1,
06
1-
1.
0-
1@
04
18
17
0A
0.
#7200000
0!
00
02
0%
#7250000
1!
10
12
1%
1V
1?
13
0,
0@
14
1A
#7300000
0!
00
02
0%
#7350000
1!
10
12
1%
1U
0V
05
04
0?
03
1,
1-
15
14
0-
#7400000
0!
00
02
0%
#7450000
1!
10
12
1%
1V
1?
13
0,
05
04
1-
#7500000
0!
00
02
0%
#7550000
1!
10
12
1%
0U
0V
1T
15
14
0?
03
1,
16
0-
06
1-
1@
04
08
07
18
17
1.
0.
#7600000
0!
00
02
0%
#7650000
1!
10
12
1%
1V
1?
13
0,
0@
14
#7700000
0!
00
02
0%
#7750000
1!
10
12
1%
1U
0V
05
04
0?
03
1,
16
0-
15
14
08
07
06
1-
1.
18
17
0.
#7800000
0!
00
02
0%
#7850000
1!
10
12
1%
1V
1?
13
0,
05
04
16
0-
08
07
1.
#7900000
0!
00
02
0%
#7950000
1!
10
12
1%
0S
0U
0V
0T
1R
18
17
15
14
0?
03
1,
06
1-
19
0.
09
1.
0-
1@
04
07
1:
0:
0A
1B
#8000000
0!
00
02
0%
#8050000
1!
10
12
1%
1V
1?
13
0,
0@
14
1A
0B
#8100000
0!
00
02
0%
#8150000
1!
10
12
1%
1U
0V
05
04
0?
03
1,
1-
15
14
0-
#8200000
0!
00
02
0%
#8250000
1!
10
12
1%
1V
1?
13
0,
05
04
1-
#8300000
0!
00
02
0%
#8350000
1!
10
12
1%
0U
0V
1T
15
14
0?
03
1,
16
0-
06
1-
1@
04
17
07
#8400000
0!
00
02
0%
#8450000
1!
10
12
1%
1V
1?
13
0,
0@
14
#8500000
0!
00
02
0%
#8550000
1!
10
12
1%
1U
0V
05
04
0?
03
1,
16
0-
15
14
17
06
1-
07
#8600000
0!
00
02
0%
#8650000
1!
10
12
1%
1V
1?
13
0,
05
04
16
0-
17
#8700000
0!
00
02
0%
#8750000
1!
10
12
1%
1S
0U
0V
0T
08
07
15
14
0?
03
1,
06
1-
19
0.
0-
1@
04
18
17
1:
0A
09
1.
0:
#8800000
0!
00
02
0%
#8850000
1!
10
12
1%
1V
1?
13
0,
0@
14
1A
#8900000
0!
00
02
0%
#8950000
1!
10
12
1%
1U
0V
05
04
0?
03
1,
1-
15
14
0-
#9000000
0!
00
02
0%
#9050000
1!
10
12
1%
1V
1?
13
0,
05
04
1-
#9100000
0!
00
02
0%
#9150000
1!
10
12
1%
0U
0V
1T
15
14
0?
03
1,
16
0-
06
1-
1@
04
08
07
18
17
19
0.
09
1.
1:
0:
#9200000
0!
00
02
0%
#9250000
1!
10
12
1%
1V
1?
13
0,
0@
14
#9300000
0!
00
02
0%
#9350000
1!
10
12
1%
1U
0V
05
04
0?
03
1,
16
0-
15
14
08
07
06
1-
19
0.
18
17
1:
09
1.
0:
#9400000
0!
00
02
0%
#9450000
1!
10
12
1%
1V
1?
13
0,
05
04
16
0-
08
07
19
0.
1:
#9500000
0!
00
02
0%
#9550000
1!
10
12
1%
1Q
0S
0U
0V
0T
0R
0;
0:
18
17
15
14
0?
03
1,
06
1-
09
1.
1=
0<
0.
0-
1@
04
07
1;
1:
1>
0A
0=
1<
1B
0>
0C
#9600000
0!
00
02
0%
#9650000
1!
10
12
1%
1V
1?
13
0,
0@
14
1A
0B
1C
#9700000
0!
00
02
0%
#9750000
1!
10
12
1%
1U
0V
05
04
0?
03
1,
1-
15
14
0-
#9800000
0!
00
02
0%
#9850000
1!
10
12
1%
1V
1?
13
0,
05
04
1-
#9900000
0!
00
02
0%
#9950000
1!
10
12
1%
0U
0V
1T
15
14
0?
03
1,
16
0-
06
1-
1@
04
17
07
#10000000
0!
00
02
0%
#10050000
1!
10
12
1%
1V
1?
13
0,
0@
14
#10100000
0!
00
02
0%
#10150000
1!
10
12
1%
1U
0V
05
04
0?
03
1,
16
0-
15
14
17
06
1-
07
#10200000
0!
00
02
0%
#10250000
1!
10
12
1%
1V
1?
13
0,
05
04
16
0-
17
#10300000
0!
00
02
0%
#10350000
1!
10
12
1%
1S
0U
0V
0T
08
07
15
14
0?
03
1,
06
1-
1.
0-
1@
04
18
17
0A
0.
#10400000
0!
00
02
0%
#10450000
1!
10
12
1%
1V
1?
13
0,
0@
14
1A
#10500000
0!
00
02
0%
#10550000
1!
10
12
1%
1U
0V
05
04
0?
03
1,
1-
15
14
0-
#10600000
0!
00
02
0%
#10650000
1!
10
12
1%
1V
1?
13
0,
05
04
1-
#10700000
0!
00
02
0%
#10750000
1!
10
12
1%
0U
0V
1T
15
14
0?
03
1,
16
0-
06
1-
1@
04
08
07
18
17
1.
0.
#10800000
0!
00
02
0%
#10850000
1!
10
12
1%
1V
1?
13
0,
0@
14
#10900000
0!
00
02
0%
#10950000
1!
10
12
1%
1U
0V
05
04
0?
03
1,
16
0-
15
14
08
07
06
1-
1.
18
17
0.
#11000000
0!
00
02
0%
#11050000
1!
10
12
1%
1V
1?
13
0,
05
04
16
0-
08
07
1.
#11100000
0!
00
02
0%
#11150000
1!
10
12
1%
0S
0U
0V
0T
1R
18
17
15
14
0?
03
1,
06
1-
19
0.
09
1.
0-
1@
04
07
0;
0:
1;
1:
0A
1=
0<
0=
1<
1B
1>
0>
#11200000
0!
00
02
0%
#11250000
1!
10
12
1%
1V
1?
13
0,
0@
14
1A
0B
#11300000
0!
00
02
0%
#11350000
1!
10
12
1%
1U
0V
05
04
0?
03
1,
1-
15
14
0-
#11400000
0!
00
02
0%
#11450000
1!
10
12
1%
1V
1?
13
0,
05
04
1-
#11500000
0!
00
02
0%
#11550000
1!
10
12
1%
0U
0V
1T
15
14
0?
03
1,
16
0-
06
1-
1@
04
17
07
#11600000
0!
00
02
0%
#11650000
1!
10
12
1%
1V
1?
13
0,
0@
14
#11700000
0!
00
02
0%
#11750000
1!
10
12
1%
1U
0V
05
04
0?
03
1,
16
0-
15
14
17
06
1-
07
#11800000
0!
00
02
0%
#11850000
1!
10
12
1%
1V
1?
13
0,
05
04
16
0-
17
#11900000
0!
00
02
0%
#11950000
1!
10
12
1%
1S
0U
0V
0T
08
07
15
14
0?
03
1,
06
1-
19
0.
0-
1@
04
18
17
0;
0:
0A
09
1.
1=
0<
1;
1:
1>
0=
1<
0>
#12000000
0!
00
02
0%
#12050000
1!
10
12
1%
1V
1?
13
0,
0@
14
1A
#12100000
0!
00
02
0%
#12150000
1!
10
12
1%
1U
0V
05
04
0?
03
1,
1-
15
14
0-
#12160000
1#
1/
11
0%
1]
1[
1@
0A
1B
#12200000
0!
00
02
1%
#12250000
1!
10
12
0%
1V
1?
13
0,
0@
05
04
1A
1-
0B
#12300000
0!
00
02
1%
#12350000
1!
10
12
0%
0U
0V
1T
1@
15
14
0?
03
1,
16
0-
06
1-
04
08
07
18
17
19
0.
09
1.
0;
0:
1;
1:
1=
0<
0=
1<
1>
0>
#12400000
0!
00
02
1%
#12450000
1!
10
12
0%
1V
1?
13
0,
14
#12500000
0!
00
02
1%
#12550000
1!
10
12
0%
1U
0V
0@
05
04
0?
03
1,
16
0-
1@
15
14
08
07
06
1-
19
0.
18
17
0;
0:
09
1.
1=
0<
1;
1:
1>
0=
1<
0>
#12600000
0!
00
02
1%
#12650000
1!
10
12
0%
1V
1?
13
0,
0@
05
04
16
0-
08
07
19
0.
0;
0:
1=
0<
1>
#12700000
0!
00
02
1%
#12750000
1!
10
12
0%
1O
0P
0Q
0S
0U
0V
0T
0R
0>
0=
1<
1;
1:
1B
18
17
1@
15
14
0?
03
1,
06
1-
09
1.
1>
0<
0C
0.
0A
0-
04
07
0:
1D
0E
#12800000
0!
00
02
1%
#12850000
1!
10
12
0%
1V
1?
13
0,
14
#12900000
0!
00
02
1%
#12950000
1!
10
12
0%
1U
0V
0@
05
04
0?
03
1,
1A
1-
1@
15
14
0A
0-
#13000000
0!
00
02
1%
#13050000
1!
10
12
0%
1V
1?
13
0,
0@
05
04
1A
1-
#13100000
0!
00
02
1%
#13150000
1!
10
12
0%
0U
0V
1T
1@
15
14
0?
03
1,
16
0-
06
1-
04
17
07
#13200000
0!
00
02
1%
#13250000
1!
10
12
0%
1V
1?
13
0,
14
#13300000
0!
00
02
1%
#13350000
1!
10
12
0%
1U
0V
0@
05
04
0?
03
1,
16
0-
1@
15
14
17
06
1-
07
#13400000
0!
00
02
1%
#13450000
1!
10
12
0%
1V
1?
13
0,
0@
05
04
16
0-
17
#13500000
0!
00
02
1%
#13550000
1!
10
12
0%
1S
0U
0V
0T
0B
08
07
1@
15
14
0?
03
1,
06
1-
1C
1.
0A
0-
04
18
17
0D
1B
0.
1E
0C
1D
0E
#13600000
0!
00
02
1%
#13650000
1!
10
12
0%
1V
1?
13
0,
14
#13700000
0!
00
02
1%
#13750000
1!
10
12
0%
1U
0V
0@
05
04
0?
03
1,
1A
1-
1@
15
14
0B
0A
0-
1C
1B
0D
0C
1E
1D
0E
#13800000
0!
00
02
1%
#13850000
1!
10
12
0%
1V
1?
13
0,
0@
05
04
1A
1-
0B
1C
0D
1E
#13900000
0!
00
02
1%
#13950000
1!
10
12
0%
0U
0V
1T
1@
15
14
0?
03
1,
16
0-
06
1-
04
08
07
18
17
1.
0.
#14000000
0!
00
02
1%
#14050000
1!
10
12
0%
1V
1?
13
0,
14
#14100000
0!
00
02
1%
#14150000
1!
10
12
0%
1U
0V
0@
05
04
0?
03
1,
16
0-
1@
15
14
08
07
06
1-
1.
18
17
0.
#14200000
0!
00
02
1%
#14250000
1!
10
12
0%
1V
1?
13
0,
0@
05
04
16
0-
08
07
1.
#14300000
0!
00
02
1%
#14350000
1!
10
12
0%
0S
0U
0V
0T
1R
1B
18
17
1@
15
14
0?
03
1,
06
1-
19
0.
09
1.
0A
0-
04
07
1:
0:
#14400000
0!
00
02
1%
#14450000
1!
10
12
0%
1V
1?
13
0,
14
#14500000
0!
00
02
1%
#14550000
1!
10
12
0%
1U
0V
0@
05
04
0?
03
1,
1A
1-
1@
15
14
0A
0-
#14600000
0!
00
02
1%
#14650000
1!
10
12
0%
1V
1?
13
0,
0@
05
04
1A
1-
#14700000
0!
00
02
1%
#14750000
1!
10
12
0%
0U
0V
1T
1@
15
14
0?
03
1,
16
0-
06
1-
04
17
07
#14800000
0!
00
02
1%
#14850000
1!
10
12
0%
1V
1?
13
0,
14
#14900000
0!
00
02
1%
#14950000
1!
10
12
0%
1U
0V
0@
05
04
0?
03
1,
16
0-
1@
15
14
17
06
1-
07
#15000000
0!
00
02
1%
#15050000
1!
10
12
0%
1V
1?
13
0,
0@
05
04
16
0-
17
#15100000
0!
00
02
1%
#15150000
1!
10
12
0%
1S
0U
0V
0T
0B
08
07
1@
15
14
0?
03
1,
06
1-
19
0.
0A
0-
04
18
17
1:
1B
09
1.
0:
#15200000
0!
00
02
1%
#15250000
1!
10
12
0%
1V
1?
13
0,
14
#15300000
0!
00
02
1%
#15350000
1!
10
12
0%
1U
0V
0@
05
04
0?
03
1,
1A
1-
1@
15
14
0B
0A
0-
1B
#15400000
0!
00
02
1%
#15450000
1!
10
12
0%
1V
1?
13
0,
0@
05
04
1A
1-
0B
#15500000
0!
00
02
1%
#15550000
1!
10
12
0%
0U
0V
1T
1@
15
14
0?
03
1,
16
0-
06
1-
04
08
07
18
17
19
0.
09
1.
1:
0:
#15600000
0!
00
02
1%
#15650000
1!
10
12
0%
1V
1?
13
0,
14
#15700000
0!
00
02
1%
#15750000
1!
10
12
0%
1U
0V
0@
05
04
0?
03
1,
16
0-
1@
15
14
08
07
06
1-
19
0.
18
17
1:
09
1.
0:
#15800000
0!
00
02
1%
#15850000
1!
10
12
0%
1V
1?
13
0,
0@
05
04
16
0-
08
07
19
0.
1:
#15900000
0!
00
02
1%
#15950000
1!
10
12
0%
1Q
0S
0U
0V
0T
0R
0;
0:
1B
18
17
1@
15
14
0?
03
1,
06
1-
09
1.
1<
0C
0.
0A
0-
04
07
1;
1:
0<
#16000000
0#
0!
0/
00
02
01
1%
#16050000
1!
10
12
0%
1V
1?
13
0,
14
#16100000
0!
00
02
1%
#16150000
1!
10
12
0%
1U
0V
0@
05
04
0?
03
1,
1A
1-
1@
15
14
0A
0-
#16200000
0!
00
02
1%
#16250000
1!
10
12
0%
1V
1?
13
0,
0@
05
04
1A
1-
#16300000
0!
00
02
1%
#16350000
1!
10
12
0%
0U
0V
1T
1@
15
14
0?
03
1,
16
0-
06
1-
04
17
07
#16400000
0!
00
02
1%
#16450000
1!
10
12
0%
1V
1?
13
0,
14
#16500000
0!
00
02
1%
#16550000
1!
10
12
0%
1U
0V
0@
05
04
0?
03
1,
16
0-
1@
15
14
17
06
1-
07
#16600000
0!
00
02
1%
#16650000
1!
10
12
0%
1V
1?
13
0,
0@
05
04
16
0-
17
#16700000
0!
00
02
1%
#16750000
1!
10
12
0%
1S
0U
0V
0T
0B
08
07
1@
15
14
0?
03
1,
06
1-
1C
1.
0A
0-
04
18
17
1B
0.
0C
#16800000
0!
00
02
1%
#16850000
1!
10
12
0%
1V
1?
13
0,
14
#16900000
0!
00
02
1%
#16950000
1!
10
12
0%
1U
0V
0@
05
04
0?
03
1,
1A
1-
1@
15
14
0B
0A
0-
1C
1B
0C
#17000000
0!
00
02
1%
#17050000
1!
10
12
0%
1V
1?
13
0,
0@
05
04
1A
1-
0B
1C
#17100000
0!
00
02
1%
#17150000
1!
10
12
0%
0U
0V
1T
1@
15
14
0?
03
1,
16
0-
06
1-
04
08
07
18
17
1.
0.
#17200000
0!
00
02
1%
#17250000
1!
10
12
0%
1V
1?
13
0,
14
#17300000
0!
00
02
1%
#17350000
1!
10
12
0%
1U
0V
0@
05
04
0?
03
1,
16
0-
1@
15
14
08
07
06
1-
1.
18
17
0.
#17400000
0!
00
02
1%
#17450000
1!
10
12
0%
1V
1?
13
0,
0@
05
04
16
0-
08
07
1.
#17500000
0!
00
02
1%
#17550000
1!
10
12
0%
0S
0U
0V
0T
1R
1B
18
17
1@
15
14
0?
03
1,
06
1-
19
0.
09
1.
0A
0-
04
07
0;
0:
1;
1:
1<
0<
#17600000
0!
00
02
1%
#17650000
1!
10
12
0%
1V
1?
13
0,
14
#17700000
0!
00
02
1%
#17750000
1!
10
12
0%
1U
0V
0@
05
04
0?
03
1,
1A
1-
1@
15
14
0A
0-
#17800000
0!
00
02
1%
#17850000
1!
10
12
0%
1V
1?
13
0,
0@
05
04
1A
1-
#17900000
0!
00
02
1%
#17950000
1!
10
12
0%
0U
0V
1T
1@
15
14
0?
03
1,
16
0-
06
1-
04
17
07
#18000000
0!
00
02
1%
#18050000
1!
10
12
0%
1V
1?
13
0,
14
#18100000
0!
00
02
1%
#18150000
1!
10
12
0%
1U
0V
0@
05
04
0?
03
1,
16
0-
1@
15
14
17
06
1-
07
#18200000
0!
00
02
1%
#18250000
1!
10
12
0%
1V
1?
13
0,
0@
05
04
16
0-
17
#18300000
0!
00
02
1%
#18350000
1!
10
12
0%
1S
0U
0V
0T
0B
08
07
1@
15
14
0?
03
1,
06
1-
19
0.
0A
0-
04
18
17
0;
0:
1B
09
1.
1<
1;
1:
0<
#18400000
0!
00
02
1%
#18450000
1!
10
12
0%
1V
1?
13
0,
14
#18500000
0!
00
02
1%
#18550000
1!
10
12
0%
1U
0V
0@
05
04
0?
03
1,
1A
1-
1@
15
14
0B
0A
0-
1B
#18600000
0!
00
02
1%
#18650000
1!
10
12
0%
1V
1?
13
0,
0@
05
04
1A
1-
0B
#18700000
0!
00
02
1%
#18750000
1!
10
12
0%
0U
0V
1T
1@
15
14
0?
03
1,
16
0-
06
1-
04
08
07
18
17
19
0.
09
1.
0;
0:
1;
1:
1<
0<
#18800000
0!
00
02
1%
#18850000
1!
10
12
0%
1V
1?
13
0,
14
#18900000
0!
00
02
1%
#18950000
1!
10
12
0%
1U
0V
0@
05
04
0?
03
1,
16
0-
1@
15
14
08
07
06
1-
19
0.
18
17
0;
0:
09
1.
1<
1;
1:
0<
#19000000
0!
00
02
1%
#19050000
1!
10
12
0%
1V
1?
13
0,
0@
05
04
16
0-
08
07
19
0.
0;
0:
1<
#19100000
0!
00
02
1%
#19150000
1!
10
12
0%
1P
0Q
0S
0U
0V
0T
0R
1=
0<
1;
1:
1B
18
17
1@
15
14
0?
03
1,
06
1-
09
1.
0>
0=
1<
0C
0.
0A
0-
04
07
0:
1>
1D
#19200000
0!
00
02
1%
#19250000
1!
10
12
0%
1V
1?
13
0,
14
#19300000
0!
00
02
1%
#19350000
1!
10
12
0%
1U
0V
0@
05
04
0?
03
1,
1A
1-
1@
15
14
0A
0-
#19400000
0!
00
02
1%
